﻿<?xml version="1.0" encoding="utf-8"?>
<svg version="1.1" xmlns:xlink="http://www.w3.org/1999/xlink" width="22px" height="30px" xmlns="http://www.w3.org/2000/svg">
  <g transform="matrix(1 0 0 1 -19 -271 )">
    <path d="M 6.11111111111111 15  L 20.1666666666667 15  C 20.6759259259259 15  21.1087962962963 15.1822916666667  21.4652777777778 15.546875  C 21.8217592592593 15.9114583333333  22 16.3541666666667  22 16.875  L 22 28.125  C 22 28.6458333333333  21.8217592592593 29.0885416666667  21.4652777777778 29.453125  C 21.1087962962963 29.8177083333333  20.6759259259259 30  20.1666666666667 30  L 1.83333333333333 30  C 1.32407407407407 30  0.891203703703704 29.8177083333333  0.534722222222222 29.453125  C 0.178240740740741 29.0885416666667  0 28.6458333333333  0 28.125  L 0 16.875  C 0 16.3541666666667  0.178240740740741 15.9114583333333  0.534722222222222 15.546875  C 0.891203703703704 15.1822916666667  1.32407407407407 15  1.83333333333333 15  L 2.44444444444444 15  L 2.44444444444444 8.75  C 2.44444444444444 6.34114583333333  3.28153935185185 4.28059895833333  4.95572916666667 2.568359375  C 6.62991898148148 0.856119791666669  8.64467592592593 0  11 0  C 13.3553240740741 0  15.3700810185185 0.856119791666669  17.0442708333333 2.568359375  C 18.7184606481481 4.28059895833333  19.5555555555556 6.34114583333333  19.5555555555556 8.75  C 19.5555555555556 9.08854166666666  19.4346064814815 9.38151041666666  19.1927083333333 9.62890625  C 18.9508101851852 9.87630208333333  18.6643518518519 10  18.3333333333333 10  L 17.1111111111111 10  C 16.7800925925926 10  16.4936342592593 9.87630208333333  16.2517361111111 9.62890625  C 16.009837962963 9.38151041666666  15.8888888888889 9.08854166666666  15.8888888888889 8.75  C 15.8888888888889 7.36979166666667  15.4114583333333 6.19140625  14.4565972222222 5.21484375  C 13.5017361111111 4.23828125  12.349537037037 3.75  11 3.75  C 9.65046296296296 3.75  8.49826388888889 4.23828125  7.54340277777778 5.21484375  C 6.58854166666667 6.19140625  6.11111111111111 7.36979166666667  6.11111111111111 8.75  L 6.11111111111111 15  Z " fill-rule="nonzero" fill="#333333" stroke="none" transform="matrix(1 0 0 1 19 271 )" />
  </g>
</svg>