﻿<?xml version="1.0" encoding="utf-8"?>
<svg version="1.1" xmlns:xlink="http://www.w3.org/1999/xlink" width="24px" height="21px" xmlns="http://www.w3.org/2000/svg">
  <g transform="matrix(1 0 0 1 -17 -182 )">
    <path d="M 22.6607142857143 8.06889204545455  C 23.1696428571429 7.68110795454545  23.6160714285714 7.24857954545455  24 6.77130681818182  L 24 18.6136363636364  C 24 19.2698863636364  23.7901785714286 19.8316761363636  23.3705357142857 20.2990056818182  C 22.9508928571429 20.7663352272727  22.4464285714286 21  21.8571428571429 21  L 2.14285714285714 21  C 1.55357142857143 21  1.04910714285714 20.7663352272727  0.629464285714286 20.2990056818182  C 0.209821428571429 19.8316761363636  0 19.2698863636364  0 18.6136363636364  L 0 6.77130681818182  C 0.392857142857143 7.25852272727273  0.84375 7.69105113636363  1.35267857142857 8.06889204545455  C 4.58482142857143 10.5149147727273  6.80357142857143 12.2301136363636  8.00892857142857 13.2144886363636  C 8.51785714285714 13.6321022727273  8.93080357142857 13.9577414772727  9.24776785714286 14.19140625  C 9.56473214285714 14.4250710227273  9.98660714285714 14.6637073863636  10.5133928571429 14.9073153409091  C 11.0401785714286 15.1509232954545  11.53125 15.2727272727273  11.9866071428571 15.2727272727273  L 12 15.2727272727273  L 12.0133928571429 15.2727272727273  C 12.46875 15.2727272727273  12.9598214285714 15.1509232954545  13.4866071428571 14.9073153409091  C 14.0133928571429 14.6637073863636  14.4352678571429 14.4250710227273  14.7522321428571 14.19140625  C 15.0691964285714 13.9577414772727  15.4821428571429 13.6321022727273  15.9910714285714 13.2144886363636  C 17.5089285714286 11.9914772727273  19.7321428571429 10.2762784090909  22.6607142857143 8.06889204545455  Z M 23.3638392857143 0.700994318181817  C 23.7879464285714 1.16832386363636  24 1.73011363636364  24 2.38636363636364  C 24 3.171875  23.78125 3.92258522727273  23.34375 4.63849431818182  C 22.90625 5.35440340909091  22.3616071428571 5.96590909090909  21.7098214285714 6.47301136363636  C 18.3526785714286 9.06818181818182  16.2633928571429 10.6839488636364  15.4419642857143 11.3203125  C 15.3526785714286 11.3899147727273  15.1629464285714 11.5415482954545  14.8727678571429 11.7752130681818  C 14.5825892857143 12.0088778409091  14.3415178571429 12.1977982954545  14.1495535714286 12.3419744318182  C 13.9575892857143 12.4861505681818  13.7254464285714 12.6477272727273  13.453125 12.8267045454545  C 13.1808035714286 13.0056818181818  12.9241071428571 13.1399147727273  12.6830357142857 13.2294034090909  C 12.4419642857143 13.3188920454545  12.21875 13.3636363636364  12.0133928571429 13.3636363636364  L 12 13.3636363636364  L 11.9866071428571 13.3636363636364  C 11.78125 13.3636363636364  11.5580357142857 13.3188920454545  11.3169642857143 13.2294034090909  C 11.0758928571429 13.1399147727273  10.8191964285714 13.0056818181818  10.546875 12.8267045454545  C 10.2745535714286 12.6477272727273  10.0424107142857 12.4861505681818  9.85044642857143 12.3419744318182  C 9.65848214285714 12.1977982954545  9.41741071428572 12.0088778409091  9.12723214285714 11.7752130681818  C 8.83705357142857 11.5415482954545  8.64732142857143 11.3899147727273  8.55803571428572 11.3203125  C 7.74553571428571 10.6839488636364  6.57589285714286 9.77663352272727  5.04910714285714 8.59836647727273  C 3.52232142857143 7.42009943181818  2.60714285714286 6.71164772727272  2.30357142857143 6.47301136363636  C 1.75 6.05539772727272  1.22767857142857 5.48117897727273  0.736607142857143 4.75035511363636  C 0.245535714285714 4.01953125  0 3.34090909090909  0 2.71448863636364  C 0 1.93892045454545  0.185267857142857 1.29261363636363  0.555803571428572 0.775568181818183  C 0.926339285714286 0.258522727272725  1.45535714285714 0  2.14285714285714 0  L 21.8571428571429 0  C 22.4375 0  22.9397321428571 0.23366477272727  23.3638392857143 0.700994318181817  Z " fill-rule="nonzero" fill="#333333" stroke="none" transform="matrix(1 0 0 1 17 182 )" />
  </g>
</svg>