﻿<?xml version="1.0" encoding="utf-8"?>
<svg version="1.1" xmlns:xlink="http://www.w3.org/1999/xlink" width="22px" height="28px" xmlns="http://www.w3.org/2000/svg">
  <g transform="matrix(1 0 0 1 -20 -224 )">
    <path d="M 1.69230769230769 21.5  L 1.69230769230769 26  L 5.5 26  L 5.5 21.5  L 1.69230769230769 21.5  Z M 6.34615384615385 21.5  L 6.34615384615385 26  L 10.5769230769231 26  L 10.5769230769231 21.5  L 6.34615384615385 21.5  Z M 1.69230769230769 15.5  L 1.69230769230769 20.5  L 5.5 20.5  L 5.5 15.5  L 1.69230769230769 15.5  Z M 6.34615384615385 15.5  L 6.34615384615385 20.5  L 10.5769230769231 20.5  L 10.5769230769231 15.5  L 6.34615384615385 15.5  Z M 1.69230769230769 10  L 1.69230769230769 14.5  L 5.5 14.5  L 5.5 10  L 1.69230769230769 10  Z M 11.4230769230769 21.5  L 11.4230769230769 26  L 15.6538461538462 26  L 15.6538461538462 21.5  L 11.4230769230769 21.5  Z M 6.34615384615385 10  L 6.34615384615385 14.5  L 10.5769230769231 14.5  L 10.5769230769231 10  L 6.34615384615385 10  Z M 16.5 21.5  L 16.5 26  L 20.3076923076923 26  L 20.3076923076923 21.5  L 16.5 21.5  Z M 11.4230769230769 15.5  L 11.4230769230769 20.5  L 15.6538461538462 20.5  L 15.6538461538462 15.5  L 11.4230769230769 15.5  Z M 6.64362980769231 7.3515625  C 6.72736378205128 7.25260416666667  6.76923076923077 7.13541666666666  6.76923076923077 7  L 6.76923076923077 2.5  C 6.76923076923077 2.36458333333333  6.72736378205128 2.24739583333333  6.64362980769231 2.1484375  C 6.55989583333333 2.04947916666666  6.46073717948718 2  6.34615384615385 2  L 5.5 2  C 5.38541666666667 2  5.28625801282051 2.04947916666666  5.20252403846154 2.1484375  C 5.11879006410256 2.24739583333333  5.07692307692308 2.36458333333333  5.07692307692308 2.5  L 5.07692307692308 7  C 5.07692307692308 7.13541666666666  5.11879006410256 7.25260416666667  5.20252403846154 7.3515625  C 5.28625801282051 7.45052083333333  5.38541666666667 7.5  5.5 7.5  L 6.34615384615385 7.5  C 6.46073717948718 7.5  6.55989583333333 7.45052083333333  6.64362980769231 7.3515625  Z M 16.5 15.5  L 16.5 20.5  L 20.3076923076923 20.5  L 20.3076923076923 15.5  L 16.5 15.5  Z M 11.4230769230769 10  L 11.4230769230769 14.5  L 15.6538461538462 14.5  L 15.6538461538462 10  L 11.4230769230769 10  Z M 16.5 10  L 16.5 14.5  L 20.3076923076923 14.5  L 20.3076923076923 10  L 16.5 10  Z M 16.7974759615385 7.3515625  C 16.8812099358974 7.25260416666667  16.9230769230769 7.13541666666666  16.9230769230769 7  L 16.9230769230769 2.5  C 16.9230769230769 2.36458333333333  16.8812099358974 2.24739583333333  16.7974759615385 2.1484375  C 16.7137419871795 2.04947916666666  16.6145833333333 2  16.5 2  L 15.6538461538462 2  C 15.5392628205128 2  15.4401041666667 2.04947916666666  15.3563701923077 2.1484375  C 15.2726362179487 2.24739583333333  15.2307692307692 2.36458333333333  15.2307692307692 2.5  L 15.2307692307692 7  C 15.2307692307692 7.13541666666666  15.2726362179487 7.25260416666667  15.3563701923077 7.3515625  C 15.4401041666667 7.45052083333333  15.5392628205128 7.5  15.6538461538462 7.5  L 16.5 7.5  C 16.6145833333333 7.5  16.7137419871795 7.45052083333333  16.7974759615385 7.3515625  Z M 21.4975961538462 4.59375  C 21.8325320512821 4.98958333333333  22 5.45833333333333  22 6  L 22 26  C 22 26.5416666666667  21.8325320512821 27.0104166666667  21.4975961538462 27.40625  C 21.1626602564103 27.8020833333333  20.7660256410256 28  20.3076923076923 28  L 1.69230769230769 28  C 1.23397435897436 28  0.837339743589744 27.8020833333333  0.502403846153846 27.40625  C 0.167467948717949 27.0104166666667  0 26.5416666666667  0 26  L 0 6  C 0 5.45833333333333  0.167467948717949 4.98958333333333  0.502403846153846 4.59375  C 0.837339743589744 4.19791666666666  1.23397435897436 4  1.69230769230769 4  L 3.38461538461539 4  L 3.38461538461539 2.5  C 3.38461538461539 1.8125  3.59174679487179 1.22395833333333  4.00600961538461 0.734375000000001  C 4.42027243589744 0.244791666666667  4.91826923076923 0  5.5 0  L 6.34615384615385 0  C 6.92788461538461 0  7.42588141025641 0.244791666666667  7.84014423076923 0.734375000000001  C 8.25440705128205 1.22395833333333  8.46153846153846 1.8125  8.46153846153846 2.5  L 8.46153846153846 4  L 13.5384615384615 4  L 13.5384615384615 2.5  C 13.5384615384615 1.8125  13.7455929487179 1.22395833333333  14.1598557692308 0.734375000000001  C 14.5741185897436 0.244791666666667  15.0721153846154 0  15.6538461538462 0  L 16.5 0  C 17.0817307692308 0  17.5797275641026 0.244791666666667  17.9939903846154 0.734375000000001  C 18.4082532051282 1.22395833333333  18.6153846153846 1.8125  18.6153846153846 2.5  L 18.6153846153846 4  L 20.3076923076923 4  C 20.7660256410256 4  21.1626602564103 4.19791666666666  21.4975961538462 4.59375  Z " fill-rule="nonzero" fill="#333333" stroke="none" transform="matrix(1 0 0 1 20 224 )" />
  </g>
</svg>