﻿<?xml version="1.0" encoding="utf-8"?>
<svg version="1.1" xmlns:xlink="http://www.w3.org/1999/xlink" width="198px" height="10px" preserveAspectRatio="xMinYMid meet" viewBox="466 276  198 8" xmlns="http://www.w3.org/2000/svg">
  <path d="M 471.5 261  L 471.5 280.5  L 659.5 280.5  L 659.5 298  " stroke-width="1" stroke="#333333" fill="none" />
  <path d="M 653.2 297  L 659.5 303  L 665.8 297  L 653.2 297  Z " fill-rule="nonzero" fill="#333333" stroke="none" />
</svg>