﻿<?xml version="1.0" encoding="utf-8"?>
<svg version="1.1" xmlns:xlink="http://www.w3.org/1999/xlink" width="10px" height="44px" preserveAspectRatio="xMidYMin meet" viewBox="467 74  8 44" xmlns="http://www.w3.org/2000/svg">
  <path d="M 471.5 74  L 471.5 109  " stroke-width="1" stroke="#333333" fill="none" />
  <path d="M 465.2 108  L 471.5 114  L 477.8 108  L 465.2 108  Z " fill-rule="nonzero" fill="#333333" stroke="none" />
</svg>