﻿<?xml version="1.0" encoding="utf-8"?>
<svg version="1.1" xmlns:xlink="http://www.w3.org/1999/xlink" width="18px" height="19px" preserveAspectRatio="xMidYMin meet" viewBox="266 289  16 19" xmlns="http://www.w3.org/2000/svg">
  <path d="M 471.5 261  L 471.5 280.5  L 274.5 280.5  L 274.5 298  " stroke-width="1" stroke="#333333" fill="none" />
  <path d="M 268.2 297  L 274.5 303  L 280.8 297  L 268.2 297  Z " fill-rule="nonzero" fill="#333333" stroke="none" />
</svg>